<?xml version="1.0" standalone="no"?>
<!DOCTYPE svg PUBLIC "-//W3C//DTD SVG 20010904//EN"
 "http://www.w3.org/TR/2001/REC-SVG-20010904/DTD/svg10.dtd">
<svg version="1.0" xmlns="http://www.w3.org/2000/svg"
 width="700.000000pt" height="700.000000pt" viewBox="0 0 700.000000 700.000000"
 preserveAspectRatio="xMidYMid meet">
  <g transform="translate(0.000000,700.000000) scale(0.100000,-0.100000)"
  fill="#000000" stroke="none">
    <path d="M601 3500 l0 -3501 1862 4 c1024 2 1880 7 1902 11 72 12 99 16 150
    22 300 36 678 144 906 259 88 45 255 144 292 174 186 151 339 314 412 441 6
    10 16 24 21 31 44 55 129 253 167 385 50 172 61 269 61 529 0 213 -2 253 -23
    355 -59 288 -193 579 -360 780 -211 253 -496 450 -819 564 -40 14 -83 26 -95
    27 -15 0 0 11 43 32 158 78 294 174 413 293 254 252 417 548 491 895 33 151
    41 234 41 414 0 260 -28 419 -121 687 -44 127 -116 269 -201 395 -177 265
    -366 433 -625 556 -87 42 -226 92 -279 102 -13 3 -55 12 -94 22 -65 16 -221
    17 -2107 20 l-2037 4 0 -3501z m2319 2115 c899 -10 1000 -12 1057 -24 128 -25
    282 -119 356 -216 56 -73 113 -199 131 -289 17 -80 22 -245 11 -345 -8 -74
    -46 -181 -91 -255 -54 -89 -173 -199 -258 -241 -149 -73 -95 -69 -1053 -73
    l-863 -3 0 725 c0 682 1 725 18 728 9 2 31 3 47 2 17 -2 307 -5 645 -9z m1313
    -2732 c197 -75 352 -223 431 -411 73 -174 91 -421 41 -593 -70 -244 -339 -461
    -616 -495 -29 -4 -465 -7 -966 -8 l-913 -1 0 768 0 768 983 -3 982 -3 58 -22z"/>
  </g>
</svg>
